%YAML 1.1
%TAG !u! tag:unity3d.com,2011:
--- !u!1045 &1
EditorBuildSettings:
  m_ObjectHideFlags: 0
  serializedVersion: 2
  m_Scenes:
  - enabled: 1
    path: Assets/Scene/Main Menu.unity
    guid: 39f88f54cc9d55a4a8529c6b9092a96a
  - enabled: 1
    path: Assets/Scene/Gameplay.unity
    guid: 8c661f759b45f724fb59550477c6f669
  - enabled: 1
    path: Assets/Scene/Game Over.unity
    guid: 3294025f3c38ef544a8e98a30b5e7f44
